{
  "multipart": [
    {
      "apply": {
        "model": "mybuildcraft:pipe_stone_center"
      }
    },
    {
      "when": {
        "north": "true"
      },
      "apply": {
        "model": "mybuildcraft:pipe_stone_connection"
      }
    },
    {
      "when": {
        "east": "true"
      },
      "apply": {
        "model": "mybuildcraft:pipe_stone_connection",
        "y": 90
      }
    },
    {
      "when": {
        "south": "true"
      },
      "apply": {
        "model": "mybuildcraft:pipe_stone_connection",
        "y": 180
      }
    },
    {
      "when": {
        "west": "true"
      },
      "apply": {
        "model": "mybuildcraft:pipe_stone_connection",
        "y": 270
      }
    },
    {
      "when": {
        "up": "true"
      },
      "apply": {
        "model": "mybuildcraft:pipe_stone_connection",
        "x": 270
      }
    },
    {
      "when": {
        "down": "true"
      },
      "apply": {
        "model": "mybuildcraft:pipe_stone_connection",
        "x": 90
      }
    }
  ]
}